<?xml version="1.0" encoding="utf-8"?>
<!-- Generator: Adobe Illustrator 22.1.0, SVG Export Plug-In . SVG Version: 6.00 Build 0)  -->
<svg version="1.1" id="Слой_1" xmlns="http://www.w3.org/2000/svg" xmlns:xlink="http://www.w3.org/1999/xlink" x="0px" y="0px"
	 viewBox="0 0 141 23" style="enable-background:new 0 0 141 23;" xml:space="preserve">
<style type="text/css">
	.st0{opacity:0.3;}
	.st1{fill:#DED76F;}
	.st2{fill:none;stroke:#0C0C0C;stroke-miterlimit:10;}
	.st3{fill:#0C0C0C;}
	.st4{fill:#DCCBBA;}
	.st5{fill:#A4801D;}
	.st6{fill:#BEBEBE;}
	.st7{fill:#5D5D5D;}
	.st8{fill:none;stroke:#5D5D5D;stroke-miterlimit:10;}
	.st9{fill:none;stroke:#000000;stroke-miterlimit:10;}
	.st10{fill:#979797;}
	.st11{fill:#201600;}
	.st12{fill:#070707;}
	.st13{fill:url(#SVGID_21_);}
	.st14{fill:none;stroke:#2A2927;stroke-miterlimit:10;}
	.st15{fill:#2A2927;}
	.st16{opacity:0.74;}
	.st17{fill:none;stroke:#DF5B22;stroke-miterlimit:10;}
	.st18{stroke:#D1D1D1;stroke-width:0.5;stroke-miterlimit:10;}
	.st19{opacity:0.79;clip-path:url(#SVGID_53_);}
	.st20{clip-path:url(#SVGID_55_);}
	.st21{opacity:0.87;}
	.st22{opacity:0.5;}
	.st23{clip-path:url(#SVGID_61_);}
	.st24{opacity:0.97;clip-path:url(#SVGID_69_);}
	.st25{opacity:0.97;clip-path:url(#SVGID_71_);}
	.st26{clip-path:url(#SVGID_73_);}
	.st27{clip-path:url(#SVGID_75_);}
	.st28{opacity:0.97;clip-path:url(#SVGID_81_);}
	.st29{clip-path:url(#SVGID_83_);}
	.st30{clip-path:url(#SVGID_85_);}
	.st31{clip-path:url(#SVGID_87_);}
	.st32{clip-path:url(#SVGID_99_);}
	.st33{opacity:0.97;clip-path:url(#SVGID_107_);}
	.st34{clip-path:url(#SVGID_109_);}
	.st35{clip-path:url(#SVGID_111_);}
	.st36{clip-path:url(#SVGID_113_);}
	.st37{fill:#E4E4E4;}
	.st38{fill:#FF0000;}
	.st39{fill:none;stroke:#FFFFFF;stroke-miterlimit:10;}
	.st40{fill:#D4D4D4;}
	.st41{fill:none;stroke:#0C0C0C;stroke-linecap:round;stroke-miterlimit:10;}
	.st42{clip-path:url(#SVGID_129_);}
	.st43{opacity:0.97;clip-path:url(#SVGID_137_);}
	.st44{clip-path:url(#SVGID_139_);}
	.st45{clip-path:url(#SVGID_141_);}
	.st46{clip-path:url(#SVGID_143_);}
	.st47{clip-path:url(#SVGID_155_);}
	.st48{opacity:0.97;clip-path:url(#SVGID_163_);}
	.st49{clip-path:url(#SVGID_165_);}
	.st50{clip-path:url(#SVGID_167_);}
	.st51{clip-path:url(#SVGID_169_);}
	.st52{fill:#FFFFFF;}
	.st53{filter:url(#Adobe_OpacityMaskFilter);}
	.st54{opacity:0.11;mask:url(#SVGID_176_);}
	.st55{opacity:0.71;}
	.st56{filter:url(#Adobe_OpacityMaskFilter_1_);}
	.st57{opacity:0.11;mask:url(#SVGID_177_);}
	.st58{filter:url(#Adobe_OpacityMaskFilter_2_);}
	.st59{opacity:0.11;mask:url(#SVGID_178_);}
	.st60{filter:url(#Adobe_OpacityMaskFilter_3_);}
	.st61{opacity:0.11;mask:url(#SVGID_179_);}
	.st62{opacity:0.56;}
	.st63{fill:none;stroke:#000000;stroke-width:2;stroke-miterlimit:10;}
	.st64{opacity:0.3;fill:none;stroke:#000000;stroke-miterlimit:10;}
	.st65{fill:none;stroke:#D9D9D9;stroke-miterlimit:10;}
	.st66{fill:none;}
	.st67{opacity:0.3;fill:none;stroke:#5D5D5D;stroke-miterlimit:10;}
	.st68{opacity:0.7;}
	.st69{fill:none;stroke:#DED76F;stroke-miterlimit:10;stroke-dasharray:11.9153,11.9153;}
	.st70{fill:#E3D96B;}
	.st71{fill:#C33D3D;}
	.st72{clip-path:url(#SVGID_189_);}
	.st73{clip-path:url(#SVGID_191_);}
	.st74{clip-path:url(#SVGID_193_);}
	.st75{clip-path:url(#SVGID_197_);}
	.st76{fill:#606060;}
	.st77{fill:#C63D3D;}
	.st78{fill:#E6DC6B;}
	.st79{fill:#222221;}
</style>
<g>
	<g>
		<path class="st3" d="M4.9,12c-0.2-0.2-0.3-0.4-0.5-0.5c-0.1-0.2-0.3-0.3-0.4-0.5c-0.1-0.2-0.2-0.3-0.3-0.5
			c-0.1-0.2-0.2-0.4-0.3-0.6c0,0,0-0.1,0-0.1c0-0.2,0.1-0.3,0.2-0.5c0.1-0.1,0.3-0.2,0.5-0.2c0.1,0,0.2,0.1,0.4,0.2
			C4.6,9.5,4.8,9.6,5,9.8c0.2,0.2,0.3,0.4,0.5,0.5c0.1,0.2,0.3,0.2,0.4,0.2c0.1,0,0.3-0.1,0.4-0.3c0.1-0.2,0.3-0.4,0.5-0.7
			C6.8,9.4,7,9.2,7.1,9c0.1-0.2,0.3-0.3,0.4-0.3c0.1,0,0.3,0.1,0.4,0.2c0.1,0.1,0.2,0.2,0.2,0.4c0,0.2-0.1,0.4-0.2,0.6
			c-0.1,0.2-0.3,0.4-0.5,0.6c-0.2,0.2-0.4,0.4-0.5,0.6c-0.1,0.2-0.2,0.4-0.2,0.5c0,0.2,0.1,0.4,0.3,0.7c0.2,0.3,0.4,0.6,0.7,0.9
			c0.2,0.3,0.5,0.6,0.7,0.9c0.2,0.3,0.3,0.6,0.3,0.8c0,0.1,0,0.2-0.1,0.3c-0.1,0.1-0.2,0.1-0.3,0.1c-0.1,0-0.3-0.1-0.5-0.3
			c-0.2-0.2-0.5-0.5-0.7-0.7c-0.3-0.3-0.5-0.5-0.7-0.8C6,13.1,5.8,13,5.7,12.9c-0.4,0.5-0.6,0.9-0.8,1.2c-0.2,0.3-0.3,0.6-0.5,0.9
			c-0.1,0.2-0.2,0.3-0.3,0.3c-0.2,0.1-0.3,0.1-0.4,0c-0.1,0-0.2-0.1-0.3-0.3c-0.1-0.1,0-0.3,0.1-0.5c0.1-0.2,0.2-0.4,0.3-0.6
			c0.1-0.2,0.3-0.4,0.4-0.6c0.1-0.2,0.3-0.4,0.4-0.6C4.7,12.4,4.8,12.2,4.9,12z"/>
		<path class="st3" d="M13.8,12.6c0,0.3,0,0.6-0.1,0.9c-0.1,0.3-0.2,0.6-0.3,0.8s-0.3,0.4-0.6,0.6c-0.2,0.2-0.5,0.2-0.9,0.2
			c-0.1,0-0.2,0-0.3,0c-0.1,0-0.3,0-0.4-0.1c-0.1,0-0.2-0.1-0.3-0.2c-0.1-0.1-0.1-0.2-0.1-0.3c0-0.1,0-0.2,0.1-0.2
			c0.1,0,0.2-0.1,0.3-0.1c0.1,0,0.2,0,0.3,0c0.1,0,0.2,0,0.2,0c0.4,0,0.7-0.1,0.8-0.4c0.1-0.3,0.2-0.6,0.2-1.1c0-0.5,0-0.9-0.1-1.3
			c-0.1-0.4-0.2-0.8-0.3-1.2c0-0.1,0-0.1,0-0.2c0-0.2,0.1-0.4,0.3-0.5c0.2-0.1,0.4-0.2,0.6-0.2c0.2,0,0.5,0,0.7,0.1
			c0.2,0,0.4,0,0.6,0c0.4,0,0.8,0,1.2-0.1c0.4,0,0.8-0.1,1.2-0.2c0,0,0.1,0,0.2,0c0.2,0,0.4,0.1,0.5,0.3c0.1,0.2,0.2,0.4,0.2,0.7
			c0,0.2,0,0.4-0.1,0.5c-0.1,0.2-0.1,0.4-0.1,0.5c0,0.4,0.1,0.7,0.2,1c0.1,0.3,0.2,0.7,0.3,1c0,0.1,0,0.3,0.1,0.6c0,0.2,0,0.4,0,0.6
			c0,0.2,0,0.3-0.1,0.4c-0.1,0.1-0.2,0.1-0.3,0.2c-0.1,0-0.2,0-0.4-0.1c-0.1-0.1-0.2-0.2-0.2-0.3c-0.1-0.6-0.2-1.2-0.3-1.9
			c0-0.7-0.1-1.3-0.3-1.9c-0.1-0.2-0.2-0.3-0.4-0.3c-0.2,0-0.5,0-0.8,0.1c-0.3,0-0.5,0.1-0.7,0.2c-0.2,0.1-0.4,0.2-0.5,0.4
			c-0.1,0.2-0.2,0.4-0.2,0.6c0,0.2,0,0.3,0,0.5C13.8,12.4,13.8,12.5,13.8,12.6z"/>
		<path class="st3" d="M25.4,14c-0.5,0.2-0.9,0.4-1.4,0.6c-0.5,0.2-0.9,0.3-1.4,0.3c-0.5,0-0.9-0.2-1.1-0.6
			c-0.3-0.4-0.4-0.8-0.4-1.3c0-0.3,0-0.7,0.1-1.1c0.1-0.4,0.2-0.8,0.4-1.2c0.2-0.4,0.4-0.6,0.8-0.9c0.3-0.2,0.7-0.3,1.1-0.3
			c0.2,0,0.4,0.1,0.6,0.2c0.2,0.1,0.4,0.2,0.6,0.4c0.2,0.2,0.4,0.3,0.5,0.5c0.1,0.2,0.2,0.4,0.2,0.6c0,0.2-0.1,0.4-0.2,0.5
			c-0.2,0.1-0.4,0.3-0.6,0.3c-0.2,0.1-0.5,0.2-0.8,0.2c-0.3,0.1-0.5,0.1-0.8,0.2c-0.2,0.1-0.5,0.1-0.6,0.2c-0.2,0.1-0.3,0.2-0.3,0.3
			c0,0.3,0.1,0.5,0.3,0.6c0.2,0.2,0.4,0.2,0.6,0.2c0.2,0,0.4,0,0.6-0.1c0.2-0.1,0.5-0.2,0.7-0.3c0.2-0.1,0.4-0.2,0.6-0.3
			c0.2-0.1,0.4-0.1,0.6-0.1c0.1,0,0.1,0,0.2,0.1c0.1,0.1,0.1,0.2,0.1,0.2c0,0.1-0.1,0.2-0.2,0.3C25.8,13.8,25.6,13.9,25.4,14z
			 M24.2,11.2v-0.1c0-0.1,0-0.2-0.1-0.3c-0.1-0.1-0.2-0.2-0.2-0.2c-0.1-0.1-0.2-0.1-0.3-0.1c-0.1,0-0.2-0.1-0.2-0.1
			c-0.1,0-0.2,0-0.2,0.1c-0.1,0-0.2,0.1-0.3,0.2c-0.1,0.1-0.2,0.2-0.2,0.3c-0.1,0.1-0.1,0.2-0.1,0.3c0,0.1,0,0.2,0.1,0.3
			c0.1,0.1,0.2,0.1,0.3,0.1c0.1,0,0.2,0,0.3,0c0.1,0,0.2,0,0.4-0.1c0.1,0,0.2-0.1,0.3-0.2C24.1,11.3,24.2,11.2,24.2,11.2z"/>
		<path class="st3" d="M29.6,9.5c0-0.9,2.3-0.9,2.3-1.1c0-0.3,0-0.1,0-0.4c0-0.2,0.1-0.4,0.2-0.6c0.1-0.2,0.3-0.2,0.5-0.2
			c0.2,0,0.4,0.1,0.5,0.2c0.1,0.1,0.2,0.3,0.2,0.4c0,0.3-0.1,0.6-0.1,0.9c0,1.1-2.4,1-2.5,1.2c-0.1,0.3-0.2,0.2-0.3,0.5
			c-0.1,0.3-0.1,0.6-0.1,0.9c0,0.1,0,0.3,0.1,0.5c0,0.2,0.1,0.3,0.3,0.3c0.2,0,0.5-0.1,0.8-0.2c0.3-0.1,0.5-0.2,0.8-0.2
			c0.2,0,0.4,0,0.6,0.1c0.2,0.1,0.3,0.2,0.4,0.3c0.1,0.1,0.2,0.3,0.2,0.5c0.1,0.2,0.1,0.3,0.1,0.5c0,0.3-0.1,0.6-0.2,0.9
			c-0.2,0.3-0.4,0.6-0.6,0.8c-0.2,0.2-0.5,0.4-0.8,0.6c-0.3,0.1-0.6,0.2-0.8,0.2c-0.5,0-0.8-0.1-1.1-0.3c-0.3-0.2-0.5-0.5-0.6-0.8
			c-0.1-0.3-0.2-0.7-0.2-1.2c0-0.4,0-0.9,0-1.3c0-0.5,0.1-0.9,0.2-1.3C29.4,10.2,29.6,9.8,29.6,9.5z M31.2,14.6
			c0.3-0.1,0.6-0.3,0.7-0.5c0.2-0.2,0.3-0.4,0.3-0.8c0-0.1,0-0.3-0.1-0.4c-0.1-0.1-0.2-0.2-0.4-0.2c-0.1,0-0.3,0-0.4,0.1
			c-0.1,0.1-0.3,0.2-0.4,0.3c-0.1,0.1-0.2,0.2-0.3,0.4c-0.1,0.1-0.1,0.3-0.1,0.4c0,0.2,0.1,0.3,0.2,0.4C30.9,14.5,31,14.5,31.2,14.6
			z"/>
		<path class="st3" d="M36.7,11.6c0,0,0-0.1,0-0.2c0-0.1,0-0.2,0-0.3c0-0.2,0-0.4,0.1-0.5c0-0.2,0.2-0.3,0.4-0.3
			c0.2,0.1,0.3,0.1,0.4,0.3c0.1,0.1,0.2,0.3,0.2,0.5c0,0.2,0.1,0.4,0.1,0.6c0,0.2,0,0.4,0.1,0.5c0,0.2,0.1,0.3,0.2,0.4
			c0.1,0.1,0.2,0.2,0.4,0.2c0.1,0,0.2,0,0.3,0c0.1,0,0.2,0,0.3,0c0.2,0,0.4,0,0.5,0c0.2,0,0.3-0.1,0.5-0.1c0.1-0.1,0.3-0.1,0.4-0.2
			c0.1-0.1,0.1-0.2,0.1-0.4c0-0.4,0-0.7-0.1-1.1c0-0.4-0.1-0.7-0.1-1.1c0-0.1,0-0.2,0-0.3c0-0.1,0.1-0.2,0.1-0.3s0.1-0.2,0.2-0.2
			c0.1-0.1,0.1-0.1,0.2-0.1c0.2,0,0.3,0,0.3,0.1c0.1,0.1,0.1,0.1,0.2,0.2c0,0.1,0.1,0.2,0.1,0.3c0,0.1,0,0.2,0,0.3
			c0,0.2,0,0.3,0,0.5c0,0.1,0,0.3,0,0.5c0,0.3,0,0.7,0.1,1c0.1,0.3,0.2,0.6,0.4,1c0,0.1,0.1,0.1,0.1,0.1c0,0.1,0,0.1,0,0.2
			c0,0.1,0,0.1,0,0.2c0,0.3,0.1,0.6,0.2,0.9c0.1,0.3,0.2,0.6,0.2,0.9c0,0.1,0,0.2-0.1,0.4c-0.1,0.1-0.2,0.2-0.3,0.2
			c-0.3,0-0.5-0.1-0.6-0.3c-0.1-0.2-0.2-0.4-0.3-0.7c-0.1-0.2-0.2-0.5-0.2-0.7c-0.1-0.2-0.3-0.3-0.5-0.3c-0.2,0-0.4,0-0.6,0
			c-0.2,0-0.5,0.1-0.7,0.1c-0.2,0.1-0.4,0.1-0.6,0.2c-0.2,0.1-0.2,0.2-0.2,0.3c0,0.2,0,0.4,0.1,0.5c0.1,0.2,0.1,0.4,0.1,0.5
			c0,0.1,0,0.2-0.1,0.3c-0.1,0.1-0.2,0.1-0.3,0.1c-0.2,0-0.4-0.1-0.5-0.3c-0.1-0.2-0.3-0.4-0.3-0.7c-0.1-0.3-0.2-0.6-0.2-1
			c0-0.3-0.1-0.7-0.1-1c0-0.3,0-0.6,0-0.8C36.7,11.8,36.7,11.6,36.7,11.6z"/>
		<path class="st3" d="M47.6,12.1c0.1,0.1,0.3,0.1,0.5,0c0.3,0,0.6-0.1,0.9-0.1c0.3,0,0.6,0.1,0.9,0.2c0.3,0.1,0.5,0.4,0.6,0.8
			c0,0.3,0,0.5-0.1,0.8c-0.1,0.2-0.3,0.5-0.6,0.7c-0.3,0.2-0.6,0.4-1,0.5c-0.4,0.1-0.8,0.3-1.2,0.3c-0.4,0.1-0.7,0.1-0.9-0.1
			c-0.2-0.1-0.3-0.5-0.4-1c0-0.9-0.1-1.8-0.2-2.7c-0.1-0.9-0.2-1.8-0.3-2.7V8.7c0-0.2,0-0.3,0.1-0.4c0.1-0.1,0.2-0.1,0.3-0.2
			c0.1,0,0.2,0,0.4,0c0.1,0.1,0.2,0.1,0.3,0.3c0,0.1,0.1,0.3,0.1,0.7c0,0.4,0.1,0.7,0.1,1.1c0,0.4,0.1,0.8,0.1,1.1
			C47.4,11.8,47.5,12,47.6,12.1z M47.8,13.8c0,0.1,0.2,0.2,0.4,0.2c0.2,0,0.4,0,0.6-0.1c0.2-0.1,0.4-0.1,0.5-0.3
			c0.1-0.1,0.2-0.2,0.2-0.4c0-0.1-0.2-0.2-0.4-0.2c-0.2,0-0.4,0-0.6,0.1c-0.2,0.1-0.4,0.2-0.6,0.3C47.8,13.6,47.8,13.7,47.8,13.8z
			 M53,14.5c0,0,0,0.1-0.1,0.1c0,0.1-0.1,0.1-0.1,0.2c-0.1,0.1-0.1,0.1-0.2,0.1c-0.1,0-0.2,0.1-0.3,0c-0.2,0-0.3-0.2-0.4-0.6
			c-0.1-0.4-0.2-0.8-0.2-1.4c0-0.5-0.1-1.1-0.1-1.7c0-0.6-0.1-1.1-0.1-1.5c0,0,0,0,0-0.1c0,0,0,0,0-0.1c0-0.2,0.1-0.4,0.2-0.5
			C51.8,9,52,9,52.1,9c0.1,0,0.2,0.1,0.4,0.2c0.1,0.1,0.2,0.3,0.1,0.5c0,0.6,0,1.1,0.1,1.5c0.1,0.5,0.1,0.9,0.2,1.3
			c0.1,0.4,0.1,0.8,0.1,1.1C53,13.9,53,14.2,53,14.5z"/>
		<path class="st3" d="M60.7,14c-0.5,0.2-0.9,0.4-1.4,0.6c-0.5,0.2-0.9,0.3-1.4,0.3c-0.5,0-0.9-0.2-1.1-0.6
			c-0.3-0.4-0.4-0.8-0.4-1.3c0-0.3,0-0.7,0.1-1.1c0.1-0.4,0.2-0.8,0.4-1.2c0.2-0.4,0.4-0.6,0.8-0.9c0.3-0.2,0.7-0.3,1.1-0.3
			c0.2,0,0.4,0.1,0.6,0.2c0.2,0.1,0.4,0.2,0.6,0.4c0.2,0.2,0.4,0.3,0.5,0.5c0.1,0.2,0.2,0.4,0.2,0.6c0,0.2-0.1,0.4-0.2,0.5
			c-0.2,0.1-0.4,0.3-0.6,0.3c-0.2,0.1-0.5,0.2-0.8,0.2c-0.3,0.1-0.5,0.1-0.8,0.2c-0.2,0.1-0.5,0.1-0.6,0.2c-0.2,0.1-0.3,0.2-0.3,0.3
			c0,0.3,0.1,0.5,0.3,0.6c0.2,0.2,0.4,0.2,0.6,0.2c0.2,0,0.4,0,0.6-0.1c0.2-0.1,0.5-0.2,0.7-0.3c0.2-0.1,0.4-0.2,0.6-0.3
			c0.2-0.1,0.4-0.1,0.6-0.1c0.1,0,0.1,0,0.2,0.1c0.1,0.1,0.1,0.2,0.1,0.2c0,0.1-0.1,0.2-0.2,0.3C61.1,13.8,61,13.9,60.7,14z
			 M59.6,11.2v-0.1c0-0.1,0-0.2-0.1-0.3c-0.1-0.1-0.2-0.2-0.2-0.2c-0.1-0.1-0.2-0.1-0.3-0.1c-0.1,0-0.2-0.1-0.2-0.1
			c-0.1,0-0.2,0-0.2,0.1c-0.1,0-0.2,0.1-0.3,0.2c-0.1,0.1-0.2,0.2-0.2,0.3c-0.1,0.1-0.1,0.2-0.1,0.3c0,0.1,0,0.2,0.1,0.3
			c0.1,0.1,0.2,0.1,0.3,0.1c0.1,0,0.2,0,0.3,0c0.1,0,0.2,0,0.4-0.1c0.1,0,0.2-0.1,0.3-0.2C59.5,11.3,59.6,11.2,59.6,11.2z"/>
		<path class="st3" d="M73.7,11.3c0.8,0,1.4-0.1,1.9-0.1c0.5,0,0.9,0,1.2-0.1c0.3,0,0.5,0,0.7,0c0.2,0,0.3,0,0.4,0
			c0.5,0,0.9,0,1.2,0.1c0.3,0.1,0.5,0.2,0.5,0.4c0,0.1-0.1,0.2-0.2,0.4c-0.1,0.2-0.3,0.2-0.4,0.2h-0.4c-1,0-1.9,0.1-2.9,0.2
			c-0.9,0.2-1.9,0.3-2.9,0.3c-0.3,0-0.6,0-0.8,0.1c-0.2,0.1-0.3,0.3-0.3,0.5c0,0.2,0,0.5,0.1,0.7c0,0.2,0.1,0.4,0.1,0.7
			c0,0.2,0,0.4-0.1,0.5c-0.1,0.2-0.2,0.3-0.5,0.3c-0.2,0-0.4-0.1-0.5-0.3c-0.1-0.2-0.2-0.5-0.3-0.8c-0.1-0.3-0.1-0.6-0.2-0.9
			c-0.1-0.3-0.1-0.5-0.2-0.6c-0.4-0.4-0.5-0.7-0.5-1.1c0-0.1,0-0.3,0.1-0.4c0.1-0.1,0.1-0.3,0.2-0.4c0.1-0.1,0.2-0.3,0.2-0.5
			c0.1-0.2,0.1-0.4,0.1-0.7c0-0.2,0-0.5,0-0.9c0-0.3,0-0.7,0-1c0-0.3,0.1-0.6,0.3-0.9c0.1-0.2,0.3-0.4,0.7-0.4c0.2,0,0.3,0,0.3,0.1
			c0.1,0.1,0.1,0.1,0.2,0.2c0,0.1,0,0.2,0,0.3c0,0.1,0,0.2,0,0.3v1.1c0,0.2,0,0.5,0.1,0.7c0,0.2,0.2,0.4,0.4,0.5
			c0.1,0,0.2-0.1,0.5-0.2c0.3-0.2,0.6-0.4,0.9-0.6c0.3-0.2,0.7-0.5,1.1-0.8c0.4-0.3,0.7-0.5,0.9-0.7c0.1-0.1,0.3-0.2,0.5-0.3
			c0.2-0.1,0.4-0.2,0.5-0.2c0.1,0,0.2,0.1,0.3,0.2c0.1,0.1,0.1,0.2,0.1,0.3c0,0.3-0.1,0.5-0.3,0.7c-0.2,0.2-0.4,0.4-0.7,0.6
			c-0.3,0.2-0.6,0.4-0.9,0.5c-0.3,0.2-0.6,0.3-0.8,0.5c-0.1,0.1-0.2,0.1-0.3,0.2c-0.1,0.1-0.2,0.2-0.3,0.3c-0.1,0.1-0.2,0.2-0.3,0.3
			c-0.1,0.1-0.1,0.2-0.1,0.2c0,0.1,0,0.1,0.1,0.2C73.7,11.3,73.7,11.3,73.7,11.3z"/>
		<path class="st3" d="M84,14.5c0-0.5-0.1-1-0.1-1.6c0-0.6,0-1.1,0-1.6c0-0.4,0-0.7,0-1c0-0.3,0.1-0.5,0.2-0.8
			c0.1-0.2,0.2-0.4,0.3-0.6c0.2-0.2,0.4-0.4,0.7-0.6c0.3-0.2,0.5-0.3,0.8-0.4c0.3-0.1,0.6-0.2,0.9-0.2c0.2,0,0.4,0,0.7,0.1
			c0.2,0.1,0.4,0.2,0.6,0.3c0.2,0.2,0.3,0.4,0.4,0.7c0.1,0.3,0.2,0.6,0.2,1c0,0.4-0.1,0.8-0.2,1.1c-0.1,0.3-0.3,0.6-0.5,0.8
			c-0.2,0.3-0.5,0.5-0.8,0.7c-0.3,0.2-0.7,0.5-1.1,0.8c-0.3,0.2-0.5,0.5-0.5,0.9c0,0.5,0,1,0,1.4c0,0.4,0,0.8,0.1,1.2
			c0,0.4,0.1,0.8,0.1,1.2c0.1,0.4,0.1,0.8,0.2,1.3c0,0.2-0.1,0.4-0.2,0.6c-0.1,0.2-0.3,0.3-0.5,0.3c-0.3,0-0.6-0.2-0.7-0.6
			c-0.2-0.4-0.3-0.9-0.4-1.5c-0.1-0.6-0.1-1.2-0.2-1.8C84,15.5,84,14.9,84,14.5z M85.6,11.7C85.6,11.7,85.6,11.8,85.6,11.7
			c0.3,0,0.5,0,0.7-0.1c0.2-0.1,0.4-0.2,0.5-0.4c0.1-0.1,0.3-0.3,0.3-0.5c0.1-0.2,0.1-0.3,0.1-0.4c0-0.5-0.1-0.8-0.3-1
			c-0.2-0.2-0.4-0.2-0.6-0.2c-0.2,0.1-0.4,0.3-0.6,0.6c-0.2,0.3-0.3,0.7-0.3,1.2C85.5,11.4,85.5,11.6,85.6,11.7z"/>
		<path class="st3" d="M93.1,12.9c-0.2-0.2-0.3-0.6-0.3-0.9c0-0.4,0.1-0.8,0.3-1.2c0.2-0.4,0.5-0.8,0.8-1.2c0.3-0.4,0.7-0.7,1.1-0.9
			c0.4-0.2,0.7-0.3,1.1-0.3c0.3,0,0.6,0.1,0.9,0.2c0.3,0.2,0.5,0.4,0.7,0.6c0.2,0.2,0.4,0.5,0.5,0.8c0.1,0.3,0.2,0.6,0.2,0.9
			c0,0.4-0.1,0.7-0.4,1c-0.2,0.3-0.6,0.6-0.9,0.8c-0.4,0.2-0.8,0.4-1.3,0.5c-0.5,0.1-0.9,0.2-1.3,0.2c-0.3,0-0.6,0-0.8-0.1
			C93.4,13.2,93.2,13.1,93.1,12.9z M96.2,10c-0.2,0-0.4,0.1-0.6,0.2c-0.2,0.1-0.4,0.3-0.5,0.4c-0.1,0.2-0.3,0.3-0.4,0.5
			c-0.1,0.2-0.1,0.4-0.1,0.5c0,0.3,0.1,0.4,0.4,0.4c0.3,0,0.5,0,0.8-0.1c0.2-0.1,0.4-0.2,0.6-0.3c0.2-0.1,0.3-0.2,0.4-0.4
			c0.1-0.1,0.1-0.3,0.1-0.4c0-0.2-0.1-0.4-0.2-0.6C96.5,10.1,96.4,10,96.2,10z"/>
		<path class="st3" d="M104.5,10.9c0,0.2,0,0.5,0,0.8c0,0.3,0,0.6,0.1,0.9c0.1,0.3,0.2,0.5,0.3,0.7c0.1,0.2,0.3,0.3,0.6,0.3
			c0.2,0,0.4-0.1,0.5-0.2c0.2-0.1,0.2-0.3,0.2-0.4v-0.1c-0.1-0.4-0.2-0.8-0.3-1.2c-0.1-0.4-0.2-0.9-0.3-1.3
			c-0.1-0.4-0.2-0.8-0.2-1.1c-0.1-0.3-0.1-0.6-0.1-0.8c0-0.4,0.1-0.6,0.2-0.7c0.1-0.1,0.3-0.2,0.5-0.2c0.3,0,0.5,0.1,0.6,0.2
			c0.1,0.1,0.2,0.3,0.3,0.5c0.1,0.2,0.1,0.4,0.1,0.7c0,0.2,0,0.5,0,0.7c0,0.6,0.1,1.1,0.1,1.7c0.1,0.6,0.3,1.2,0.6,1.7
			c0.2,0,0.4-0.1,0.6-0.1c0.2,0,0.4-0.1,0.7-0.1c0.2-0.1,0.4-0.1,0.5-0.2c0.1-0.1,0.2-0.2,0.2-0.4V12c-0.2-0.8-0.5-1.7-0.8-2.6
			c-0.3-0.9-0.4-1.8-0.4-2.6c0-0.2,0-0.4,0-0.6c0-0.2,0.1-0.4,0.2-0.6c0.1-0.2,0.2-0.3,0.3-0.4c0.1-0.1,0.3-0.2,0.5-0.2
			c0.2,0,0.3,0.1,0.4,0.2c0.1,0.1,0.1,0.2,0.1,0.3c0,0.2,0,0.5-0.1,0.7c-0.1,0.2-0.1,0.5-0.1,0.7c0,0.8,0.2,1.6,0.5,2.3l1.2,2.9
			c0.1,0.1,0.1,0.3,0.2,0.5c0.1,0.2,0.1,0.4,0.1,0.5c0,0.2-0.1,0.4-0.3,0.6c-0.2,0.2-0.4,0.3-0.5,0.3c-0.3,0-0.6,0-0.9-0.1
			c-0.3-0.1-0.6-0.1-0.9-0.1c-0.3,0-0.6,0-0.8,0.1c-0.2,0.1-0.5,0.3-0.7,0.5c-0.1,0.1-0.3,0.2-0.5,0.2c-0.1,0-0.3,0-0.4,0
			c-0.1,0-0.3,0-0.4,0c-0.3,0-0.6,0-0.9,0.1c-0.3,0.1-0.6,0.1-1,0.1c-0.5,0-0.8-0.1-1-0.4c-0.2-0.3-0.4-0.6-0.4-1
			c-0.1-0.4-0.1-0.8-0.1-1.1c0-0.4,0-0.6,0-0.8c0-0.3,0-0.7,0-1.1c0-0.4,0-0.8,0-1.2c0-0.4,0.1-0.7,0.2-1c0.1-0.3,0.3-0.4,0.6-0.4
			c0.3,0,0.5,0.1,0.6,0.3c0.1,0.2,0.1,0.4,0.1,0.7c0,0.3,0,0.6-0.1,1C104.6,9.9,104.5,10.4,104.5,10.9z"/>
		<path class="st3" d="M116.8,8c0-0.1,0-0.3,0-0.5c0-0.2,0-0.4,0.1-0.6c0-0.2,0.1-0.3,0.2-0.5c0.1-0.1,0.3-0.2,0.5-0.2
			c0.2,0,0.4,0.1,0.5,0.3c0.1,0.2,0.2,0.4,0.2,0.7c0,0.3,0.1,0.6,0.1,0.9c0,0.3,0,0.7,0,0.9c0,0.3,0.1,0.5,0.1,0.7
			c0.1,0.2,0.2,0.3,0.4,0.3c0.2,0,0.4-0.1,0.6-0.3c0.2-0.2,0.5-0.4,0.7-0.6c0.2-0.2,0.5-0.4,0.7-0.6c0.2-0.2,0.4-0.3,0.6-0.3
			c0.2,0,0.3,0,0.5,0.1c0.2,0.1,0.3,0.2,0.3,0.4c0,0.2-0.1,0.3-0.2,0.5c-0.1,0.2-0.2,0.3-0.3,0.5c-0.1,0.2-0.2,0.3-0.3,0.4
			c-0.1,0.1-0.2,0.2-0.2,0.2c0,0.2,0.1,0.3,0.4,0.4c0.3,0.1,0.6,0.2,1,0.2c0.4,0.1,0.8,0.2,1.2,0.3c0.4,0.1,0.8,0.3,1,0.6
			c0.1,0.2,0.1,0.4,0,0.5c-0.2,0.1-0.3,0.2-0.5,0.2c-0.2,0-0.4,0-0.7-0.1c-0.3-0.1-0.5-0.2-0.7-0.3c-0.5-0.2-1.1-0.4-1.7-0.5
			c-0.6-0.1-1.2-0.2-1.8-0.2c-0.9,0-1.3,0.4-1.3,1.2c0,0.3,0,0.5,0.1,0.8c0.1,0.3,0.1,0.5,0.1,0.8c0,0.1-0.1,0.3-0.2,0.4
			c-0.1,0.1-0.3,0.2-0.4,0.2c-0.4,0-0.7-0.2-0.9-0.5c-0.2-0.3-0.3-0.7-0.3-1.2c-0.1-0.5-0.1-1-0.1-1.5c0-0.5,0-1,0-1.4
			c0-0.3,0-0.7,0-1.2C116.8,8.8,116.8,8.4,116.8,8z"/>
		<path class="st3" d="M136.7,7.8c0.1,0.3,0.1,0.8,0.1,1.5c0,0.7,0.1,1.4,0.1,2.1c0,0.7,0,1.4,0.1,2.1c0,0.6,0,1.1,0,1.3
			c-0.1,0.2-0.3,0.3-0.5,0.3s-0.4-0.1-0.5-0.4c0-0.1-0.1-0.3-0.1-0.6c0-0.3-0.1-0.6-0.1-1c-0.1-0.4-0.1-0.8-0.2-1.2
			c-0.1-0.4-0.1-0.8-0.2-1.2c-0.1-0.4-0.1-0.6-0.2-0.9c-0.1-0.2-0.1-0.3-0.2-0.3c-0.1,0-0.2,0.2-0.4,0.4c-0.2,0.3-0.4,0.6-0.6,0.9
			c-0.2,0.4-0.5,0.8-0.8,1.2c-0.3,0.5-0.6,0.9-0.9,1.3c-0.3,0.4-0.6,0.8-0.9,1.1c-0.3,0.3-0.6,0.5-0.8,0.5c-0.2,0.1-0.4,0.1-0.5,0
			c-0.2-0.1-0.3-0.2-0.4-0.3c-0.1-0.2-0.2-0.3-0.2-0.5c-0.1-0.2-0.1-0.4-0.1-0.6c0-0.9,0-1.9,0-2.9c0-1,0-2-0.1-3
			c0-0.1,0-0.1,0.1-0.2c0.1-0.1,0.2-0.1,0.4-0.2c0.1,0,0.3,0,0.4,0c0.1,0.1,0.2,0.2,0.2,0.4c0.1,0.3,0.1,0.6,0.1,1
			c0,0.4,0,0.8,0.1,1.2c0,0.4,0,0.8,0,1.2c0,0.4,0,0.8,0.1,1.1c0,0.2,0.1,0.3,0.1,0.3c0,0,0.1,0,0.3-0.1c0.2-0.2,0.5-0.5,0.7-0.9
			c0.3-0.4,0.5-0.9,0.8-1.4c0.3-0.5,0.5-0.9,0.8-1.4c0.3-0.5,0.5-0.8,0.8-1.1c0.2-0.2,0.4-0.3,0.7-0.3c0.3-0.1,0.6-0.1,0.8,0
			c0.3,0,0.5,0.1,0.7,0.2C136.6,7.6,136.7,7.7,136.7,7.8z"/>
	</g>
</g>
</svg>
